Homework 5 Poker

Total Score: 

Compiles       0 pts
Doesn't compile
Comments    10 pts

Checks for Integer     10 pts

Checks for duplicates   10 pts

Program works             50 pts


Total:   80pts

